Scraping data from Twitterâ€™s Streaming API
…
How many tweets mention Justin Bieber?

length(grep("bieber", tweets$text, ignore.case=TRUE))

## [1] 0

These are toy examples, but for large files with tweets in JSON format, there might be faster ways to parse the data. For example, the ndjson package offers a robust and fast way to parse JSON data:

library(ndjson)
json <- stream_in("../data/tweets_geo.json")
json

## Source: local data table [657 x 1,512]
## 
## # A tibble: 657 x 1,512
##    contributors coordinates                     created_at
##           <int>       <int>                          <chr>
##  1           NA          NA Sun Dec 17 17:39:54 +0000 2017
##  2           NA          NA Sun Dec 17 17:39:55 +0000 2017
##  3           NA          NA Sun Dec 17 17:39:55 +0000 2017
##  4           NA          NA Sun Dec 17 17:39:55 +0000 2017
##  5           NA          NA Sun Dec 17 17:39:54 +0000 2017
##  6           NA          NA Sun Dec 17 17:39:55 +0000 2017
##  7           NA          NA Sun Dec 17 17:39:55 +0000 2017
##  8           NA          NA Sun Dec 17 17:39:55 +0000 2017
##  9           NA          NA Sun Dec 17 17:39:55 +0000 2017
## 10           NA          NA Sun Dec 17 17:39:55 +0000 2017
## # ... with 647 more rows, and 1509 more variables:
## #   display_text_range.0 <dbl>, display_text_range.1 <dbl>,
## #   entities.hashtags <int>, entities.media.0.display_url <chr>,
## #   entities.media.0.expanded_url <chr>, entities.media.0.id <dbl>,
## #   entities.media.0.id_str <chr>, entities.media.0.indices.0 <dbl>,
## #   entities.media.0.indices.1 <dbl>, entities.media.0.media_url <chr>,
## #   entities.media.0.media_url_https <chr>,
## #   entities.media.0.sizes.large.h <dbl>,
## #   entities.media.0.sizes.large.resize <chr>,
…
