Scraping data from Twitterâ€™s Streaming API
…
How many tweets mention Justin Bieber?

length(grep("bieber", tweets$text, ignore.case=TRUE))

## [1] 0

These are toy examples, but for large files with tweets in JSON format, there might be faster ways to parse the data. For example, the ndjson package offers a robust and fast way to parse JSON data:

library(ndjson)
json <- stream_in("../data/tweets_geo.json")
json

## Source: local data table [648 x 1,398]
## 
## # A tibble: 648 x 1,398
##    contributors coordinates                     created_at
##           <int>       <int>                          <chr>
##  1           NA          NA Tue Jan 23 21:20:10 +0000 2018
##  2           NA          NA Tue Jan 23 21:20:10 +0000 2018
##  3           NA          NA Tue Jan 23 21:20:10 +0000 2018
##  4           NA          NA Tue Jan 23 21:20:11 +0000 2018
##  5           NA          NA Tue Jan 23 21:20:11 +0000 2018
##  6           NA          NA Tue Jan 23 21:20:11 +0000 2018
##  7           NA          NA Tue Jan 23 21:20:11 +0000 2018
##  8           NA          NA Tue Jan 23 21:20:11 +0000 2018
##  9           NA          NA Tue Jan 23 21:20:11 +0000 2018
## 10           NA          NA Tue Jan 23 21:20:11 +0000 2018
## # ... with 638 more rows, and 1395 more variables:
## #   display_text_range.0 <dbl>, display_text_range.1 <dbl>,
## #   entities.hashtags <int>, entities.symbols <int>, entities.urls <int>,
## #   entities.user_mentions.0.id <dbl>,
## #   entities.user_mentions.0.id_str <chr>,
## #   entities.user_mentions.0.indices.0 <dbl>,
## #   entities.user_mentions.0.indices.1 <dbl>,
## #   entities.user_mentions.0.name <chr>,
## #   entities.user_mentions.0.screen_name <chr>, favorite_count <dbl>,
…
